…
Nesse post eu disse que para realizar o teste t em duas amostras independentes deveríamos saber antes se as variâncias dessas amostras são iguais ou diferentes. Vamos ver como atestar isso agora. A base utilizada será a german credit data.

{{% highlight "r" %}}

# importando dados
# obs.: o -1 é para remover a primeira coluna, que é apenas o índice
data = readr::read_csv("german_credit_data.csv")[-1]

# visualizando
print(data)

{{% /highlight %}}

## # A tibble: 1,000 x 9
##      Age Sex      Job Housing `Saving account~ `Checking accoun~ `Credit amount`
##    <dbl> <chr>  <dbl> <chr>   <chr>            <chr>                       <dbl>
##  1    67 male       2 own     <NA>             little                       1169
##  2    22 female     2 own     little           moderate                     5951
##  3    49 male       1 own     little           <NA>                         2096
##  4    45 male       2 free    little           little                       7882
##  5    53 male       2 free    little           little                       4870
##  6    35 male       1 free    <NA>             <NA>                         9055
##  7    53 male       2 own     quite rich       <NA>                         2835
##  8    35 male       3 rent    little           moderate                     6948
##  9    61 male       1 own     rich             <NA>                         3059
## 10    28 male       3 own     little           moderate                     5234
## # ... with 990 more rows, and 2 more variables: Duration <dbl>, Purpose <chr>
…
